%YAML 1.1
%TAG !u! tag:unity3d.com,2011:
--- !u!13 &1
InputManager:
  m_ObjectHideFlags: 0
  m_Axes:
  - serializedVersion: 3
    m_Name: Up
    descriptiveName: 
    descriptiveNegativeName: 
    negativeButton: 
    positiveButton: w
    altNegativeButton: 
    altPositiveButton: 
    gravity: 3
    dead: .00100000005
    sensitivity: 3
    snap: 1
    invert: 0
    type: 0
    axis: 1
    joyNum: 0
  - serializedVersion: 3
    m_Name: Down
    descriptiveName: 
    descriptiveNegativeName: 
    negativeButton: 
    positiveButton: p
    altNegativeButton: 
    altPositiveButton: 
    gravity: 3
    dead: .00100000005
    sensitivity: 3
    snap: 1
    invert: 1
    type: 0
    axis: 1
    joyNum: 1
