%YAML 1.1
%TAG !u! tag:unity3d.com,2011:
--- !u!74 &7400000
AnimationClip:
  m_ObjectHideFlags: 0
  m_PrefabParentObject: {fileID: 0}
  m_PrefabInternal: {fileID: 0}
  m_Name: Wall1
  serializedVersion: 4
  m_AnimationType: 2
  m_Compressed: 0
  m_UseHighQualityCurve: 1
  m_RotationCurves: []
  m_CompressedRotationCurves: []
  m_PositionCurves: []
  m_ScaleCurves: []
  m_FloatCurves: []
  m_PPtrCurves:
  - curve:
    - time: 0
      value: {fileID: 21300000, guid: e5bcff2ee2ae5524f84fcb232992d0a4, type: 3}
    - time: .0833333358
      value: {fileID: 21300000, guid: f58bda1c71ad88d4f9e05af178c090ed, type: 3}
    - time: .166666672
      value: {fileID: 21300000, guid: 0eaf7ab208c4a1447ac6284973a63819, type: 3}
    - time: .25
      value: {fileID: 21300000, guid: 716ba8710f443a64fa911c492bcfb601, type: 3}
    - time: .333333343
      value: {fileID: 21300000, guid: f35cfd3bdc6e3204fbeeb7e2ab766708, type: 3}
    - time: .416666657
      value: {fileID: 21300000, guid: e87ac3978562fb64d9f3e0fc8dd0831b, type: 3}
    - time: .5
      value: {fileID: 21300000, guid: 7c4ec347b612f274c8c66dc9b3daf2a6, type: 3}
    - time: .583333313
      value: {fileID: 21300000, guid: 6d5e1df9a6f0af340ab68637c6e1d478, type: 3}
    - time: .666666687
      value: {fileID: 21300000, guid: a1147ad150d6d434d9909423770fb9f1, type: 3}
    - time: .75
      value: {fileID: 21300000, guid: 68a47a7150fb77b498bc219eef595980, type: 3}
    attribute: m_Sprite
    path: 
    classID: 212
    script: {fileID: 0}
  m_SampleRate: 12
  m_WrapMode: 0
  m_Bounds:
    m_Center: {x: 0, y: 0, z: 0}
    m_Extent: {x: 0, y: 0, z: 0}
  m_AnimationClipSettings:
    serializedVersion: 2
    m_StartTime: 0
    m_StopTime: .833333313
    m_OrientationOffsetY: 0
    m_Level: 0
    m_CycleOffset: 0
    m_LoopTime: 0
    m_LoopBlend: 0
    m_LoopBlendOrientation: 0
    m_LoopBlendPositionY: 0
    m_LoopBlendPositionXZ: 0
    m_KeepOriginalOrientation: 0
    m_KeepOriginalPositionY: 1
    m_KeepOriginalPositionXZ: 0
    m_HeightFromFeet: 0
    m_Mirror: 0
  m_EditorCurves: []
  m_EulerEditorCurves: []
  m_Events: []
