%YAML 1.1
%TAG !u! tag:unity3d.com,2011:
--- !u!74 &7400000
AnimationClip:
  m_ObjectHideFlags: 0
  m_PrefabParentObject: {fileID: 0}
  m_PrefabInternal: {fileID: 0}
  m_Name: Ring
  serializedVersion: 4
  m_AnimationType: 2
  m_Compressed: 0
  m_UseHighQualityCurve: 1
  m_RotationCurves: []
  m_CompressedRotationCurves: []
  m_PositionCurves: []
  m_ScaleCurves: []
  m_FloatCurves: []
  m_PPtrCurves:
  - curve:
    - time: 0
      value: {fileID: 21300000, guid: ec2fc2f45114b9b4cbc65ea63419280f, type: 3}
    - time: .0833333358
      value: {fileID: 21300000, guid: 8eeb2da6c46b1cb43bab52bdc707f0ce, type: 3}
    - time: .166666672
      value: {fileID: 21300000, guid: 02e081be6ae02a648bf3ac6a5823a65b, type: 3}
    - time: .25
      value: {fileID: 21300000, guid: 43b4ead8261ac534a97b0451ca9f4139, type: 3}
    - time: .333333343
      value: {fileID: 21300000, guid: 0792d6533570d23409b850de079ad842, type: 3}
    - time: .416666657
      value: {fileID: 21300000, guid: c0a7fe52c5b338d4a8bde348b50cf935, type: 3}
    - time: .5
      value: {fileID: 21300000, guid: 4072e6226b6dffa438755b692c2c48d4, type: 3}
    - time: .583333313
      value: {fileID: 21300000, guid: 52606429e7ec5c945b76f3543ce640bb, type: 3}
    - time: .666666687
      value: {fileID: 21300000, guid: 504c8fbad97ce044684f959a25e087ed, type: 3}
    - time: .75
      value: {fileID: 21300000, guid: 06e8979b70c2693488993d1c6ff3b781, type: 3}
    - time: .833333313
      value: {fileID: 21300000, guid: be7ec6386cfc7de41b224c77edccc5c2, type: 3}
    - time: .916666687
      value: {fileID: 21300000, guid: f954be4cb202fbe478a2ee958580e4fb, type: 3}
    attribute: m_Sprite
    path: 
    classID: 212
    script: {fileID: 0}
  m_SampleRate: 12
  m_WrapMode: 0
  m_Bounds:
    m_Center: {x: 0, y: 0, z: 0}
    m_Extent: {x: 0, y: 0, z: 0}
  m_AnimationClipSettings:
    serializedVersion: 2
    m_StartTime: 0
    m_StopTime: 1
    m_OrientationOffsetY: 0
    m_Level: 0
    m_CycleOffset: 0
    m_LoopTime: 1
    m_LoopBlend: 0
    m_LoopBlendOrientation: 0
    m_LoopBlendPositionY: 0
    m_LoopBlendPositionXZ: 0
    m_KeepOriginalOrientation: 0
    m_KeepOriginalPositionY: 1
    m_KeepOriginalPositionXZ: 0
    m_HeightFromFeet: 0
    m_Mirror: 0
  m_EditorCurves: []
  m_EulerEditorCurves: []
  m_Events: []
