%YAML 1.1
%TAG !u! tag:unity3d.com,2011:
--- !u!74 &7400000
AnimationClip:
  m_ObjectHideFlags: 0
  m_PrefabParentObject: {fileID: 0}
  m_PrefabInternal: {fileID: 0}
  m_Name: squaresquirl
  serializedVersion: 4
  m_AnimationType: 2
  m_Compressed: 0
  m_UseHighQualityCurve: 1
  m_RotationCurves: []
  m_CompressedRotationCurves: []
  m_PositionCurves: []
  m_ScaleCurves: []
  m_FloatCurves: []
  m_PPtrCurves:
  - curve:
    - time: 0
      value: {fileID: 21300000, guid: 77893de9a529b414faeeedb4620cf900, type: 3}
    - time: .0833333358
      value: {fileID: 21300000, guid: 554ce9824f909424393c57b0231b2172, type: 3}
    - time: .166666672
      value: {fileID: 21300000, guid: 7264e6d64e1307f4a91bea3d3e771564, type: 3}
    - time: .25
      value: {fileID: 21300000, guid: fc74e04d0fdfbe5498efb56c82a36cf3, type: 3}
    - time: .333333343
      value: {fileID: 21300000, guid: 6078b83fa6f476845a9fbb6e77fe2484, type: 3}
    - time: .416666657
      value: {fileID: 21300000, guid: e4cf3b9faf3bfa642b0a354c1c49c3a7, type: 3}
    - time: .5
      value: {fileID: 21300000, guid: aee062dd8f6ca784a8248416e6c6c77e, type: 3}
    - time: .583333313
      value: {fileID: 21300000, guid: 71da1ac07f2c26548a9862b876d94fbd, type: 3}
    - time: .666666687
      value: {fileID: 21300000, guid: 86585359217ea0045880c74f43363ed9, type: 3}
    - time: .75
      value: {fileID: 21300000, guid: 8bf2b1fc8faf30e41a8b4b2427d4d5bb, type: 3}
    - time: .833333313
      value: {fileID: 21300000, guid: 03a2e011ac289f5408c6a97d5f222ef4, type: 3}
    - time: .916666687
      value: {fileID: 21300000, guid: 6b23e9cbf48bae6478c1fb7d1342e1ef, type: 3}
    - time: 1
      value: {fileID: 21300000, guid: e7a0034bc971ba84681b09076f33d018, type: 3}
    - time: 1.08333337
      value: {fileID: 21300000, guid: c78b1c125319e7b4989f471806566129, type: 3}
    - time: 1.16666663
      value: {fileID: 21300000, guid: 53b942ef869871f45ac21b1bdc0f97d2, type: 3}
    - time: 1.25
      value: {fileID: 21300000, guid: b28d5d86095c0554590f37f673ccb393, type: 3}
    - time: 1.33333337
      value: {fileID: 21300000, guid: fd1c78aeac950f44eb823eb6ea7a14b7, type: 3}
    attribute: m_Sprite
    path: 
    classID: 212
    script: {fileID: 0}
  m_SampleRate: 12
  m_WrapMode: 0
  m_Bounds:
    m_Center: {x: 0, y: 0, z: 0}
    m_Extent: {x: 0, y: 0, z: 0}
  m_AnimationClipSettings:
    serializedVersion: 2
    m_StartTime: 0
    m_StopTime: 1.41666675
    m_OrientationOffsetY: 0
    m_Level: 0
    m_CycleOffset: 0
    m_LoopTime: 1
    m_LoopBlend: 0
    m_LoopBlendOrientation: 0
    m_LoopBlendPositionY: 0
    m_LoopBlendPositionXZ: 0
    m_KeepOriginalOrientation: 0
    m_KeepOriginalPositionY: 1
    m_KeepOriginalPositionXZ: 0
    m_HeightFromFeet: 0
    m_Mirror: 0
  m_EditorCurves: []
  m_EulerEditorCurves: []
  m_Events: []
